mux_4_way/mux_4_way.sim/sim_1/behav/xsim/simulate.log
Vivado Simulator 2019.2
Time resolution is 1 ps
a = 00000000  | b = 00000000| c = 00000000| d = 00000000 |  sel = 0  |  y = 00000000
a = 00000000  | b = 00000000| c = 00000000| d = 00000000 |  sel = 1  |  y = 00000000
a = 00000000  | b = 00000000| c = 00000000| d = 00000000 |  sel = 2  |  y = 00000000
a = 00000000  | b = 00000000| c = 00000000| d = 00000000 |  sel = 3  |  y = 00000000
-----------------------------------------
a = 00000001  | b = 00000001| c = 00000001| d = 00000001 |  sel = 0  |  y = 00000001
a = 00000001  | b = 00000001| c = 00000001| d = 00000001 |  sel = 1  |  y = 00000001
a = 00000001  | b = 00000001| c = 00000001| d = 00000001 |  sel = 2  |  y = 00000001
a = 00000001  | b = 00000001| c = 00000001| d = 00000001 |  sel = 3  |  y = 00000001
-----------------------------------------
a = 00000010  | b = 00000010| c = 00000010| d = 00000010 |  sel = 0  |  y = 00000010
a = 00000010  | b = 00000010| c = 00000010| d = 00000010 |  sel = 1  |  y = 00000010
a = 00000010  | b = 00000010| c = 00000010| d = 00000010 |  sel = 2  |  y = 00000010
a = 00000010  | b = 00000010| c = 00000010| d = 00000010 |  sel = 3  |  y = 00000010
-----------------------------------------
a = 00000011  | b = 00000011| c = 00000011| d = 00000011 |  sel = 0  |  y = 00000011
a = 00000011  | b = 00000011| c = 00000011| d = 00000011 |  sel = 1  |  y = 00000011
a = 00000011  | b = 00000011| c = 00000011| d = 00000011 |  sel = 2  |  y = 00000011
a = 00000011  | b = 00000011| c = 00000011| d = 00000011 |  sel = 3  |  y = 00000011
-----------------------------------------
a = 00000100  | b = 00000100| c = 00000100| d = 00000100 |  sel = 0  |  y = 00000100
a = 00000100  | b = 00000100| c = 00000100| d = 00000100 |  sel = 1  |  y = 00000100
a = 00000100  | b = 00000100| c = 00000100| d = 00000100 |  sel = 2  |  y = 00000100
a = 00000100  | b = 00000100| c = 00000100| d = 00000100 |  sel = 3  |  y = 00000100
-----------------------------------------
a = 00000101  | b = 00000101| c = 00000101| d = 00000101 |  sel = 0  |  y = 00000101
a = 00000101  | b = 00000101| c = 00000101| d = 00000101 |  sel = 1  |  y = 00000101
a = 00000101  | b = 00000101| c = 00000101| d = 00000101 |  sel = 2  |  y = 00000101
a = 00000101  | b = 00000101| c = 00000101| d = 00000101 |  sel = 3  |  y = 00000101
-----------------------------------------
a = 00000110  | b = 00000110| c = 00000110| d = 00000110 |  sel = 0  |  y = 00000110
a = 00000110  | b = 00000110| c = 00000110| d = 00000110 |  sel = 1  |  y = 00000110
a = 00000110  | b = 00000110| c = 00000110| d = 00000110 |  sel = 2  |  y = 00000110
a = 00000110  | b = 00000110| c = 00000110| d = 00000110 |  sel = 3  |  y = 00000110
-----------------------------------------
a = 00000111  | b = 00000111| c = 00000111| d = 00000111 |  sel = 0  |  y = 00000111
a = 00000111  | b = 00000111| c = 00000111| d = 00000111 |  sel = 1  |  y = 00000111
a = 00000111  | b = 00000111| c = 00000111| d = 00000111 |  sel = 2  |  y = 00000111
a = 00000111  | b = 00000111| c = 00000111| d = 00000111 |  sel = 3  |  y = 00000111
-----------------------------------------
a = 00001000  | b = 00001000| c = 00001000| d = 00001000 |  sel = 0  |  y = 00001000
a = 00001000  | b = 00001000| c = 00001000| d = 00001000 |  sel = 1  |  y = 00001000
a = 00001000  | b = 00001000| c = 00001000| d = 00001000 |  sel = 2  |  y = 00001000
a = 00001000  | b = 00001000| c = 00001000| d = 00001000 |  sel = 3  |  y = 00001000
-----------------------------------------
a = 00001001  | b = 00001001| c = 00001001| d = 00001001 |  sel = 0  |  y = 00001001
a = 00001001  | b = 00001001| c = 00001001| d = 00001001 |  sel = 1  |  y = 00001001
a = 00001001  | b = 00001001| c = 00001001| d = 00001001 |  sel = 2  |  y = 00001001
a = 00001001  | b = 00001001| c = 00001001| d = 00001001 |  sel = 3  |  y = 00001001
-----------------------------------------
a = 00001010  | b = 00001010| c = 00001010| d = 00001010 |  sel = 0  |  y = 00001010
a = 00001010  | b = 00001010| c = 00001010| d = 00001010 |  sel = 1  |  y = 00001010
a = 00001010  | b = 00001010| c = 00001010| d = 00001010 |  sel = 2  |  y = 00001010
a = 00001010  | b = 00001010| c = 00001010| d = 00001010 |  sel = 3  |  y = 00001010
-----------------------------------------
a = 00001011  | b = 00001011| c = 00001011| d = 00001011 |  sel = 0  |  y = 00001011
a = 00001011  | b = 00001011| c = 00001011| d = 00001011 |  sel = 1  |  y = 00001011
a = 00001011  | b = 00001011| c = 00001011| d = 00001011 |  sel = 2  |  y = 00001011
a = 00001011  | b = 00001011| c = 00001011| d = 00001011 |  sel = 3  |  y = 00001011
-----------------------------------------
a = 00001100  | b = 00001100| c = 00001100| d = 00001100 |  sel = 0  |  y = 00001100
a = 00001100  | b = 00001100| c = 00001100| d = 00001100 |  sel = 1  |  y = 00001100
a = 00001100  | b = 00001100| c = 00001100| d = 00001100 |  sel = 2  |  y = 00001100
a = 00001100  | b = 00001100| c = 00001100| d = 00001100 |  sel = 3  |  y = 00001100
-----------------------------------------
a = 00001101  | b = 00001101| c = 00001101| d = 00001101 |  sel = 0  |  y = 00001101
a = 00001101  | b = 00001101| c = 00001101| d = 00001101 |  sel = 1  |  y = 00001101
a = 00001101  | b = 00001101| c = 00001101| d = 00001101 |  sel = 2  |  y = 00001101
a = 00001101  | b = 00001101| c = 00001101| d = 00001101 |  sel = 3  |  y = 00001101
-----------------------------------------
a = 00001110  | b = 00001110| c = 00001110| d = 00001110 |  sel = 0  |  y = 00001110
a = 00001110  | b = 00001110| c = 00001110| d = 00001110 |  sel = 1  |  y = 00001110
a = 00001110  | b = 00001110| c = 00001110| d = 00001110 |  sel = 2  |  y = 00001110
a = 00001110  | b = 00001110| c = 00001110| d = 00001110 |  sel = 3  |  y = 00001110
-----------------------------------------
a = 00001111  | b = 00001111| c = 00001111| d = 00001111 |  sel = 0  |  y = 00001111
a = 00001111  | b = 00001111| c = 00001111| d = 00001111 |  sel = 1  |  y = 00001111
a = 00001111  | b = 00001111| c = 00001111| d = 00001111 |  sel = 2  |  y = 00001111
a = 00001111  | b = 00001111| c = 00001111| d = 00001111 |  sel = 3  |  y = 00001111
-----------------------------------------
